config-parser/test/bad-funs.cfg:4:9: error: Unknown function of 4 arguments: `loads_of_args'.
    x = loads_of_args (1, 2, 3, 4);
        ^~~~~~~~~~~~~
config-parser/test/bad-funs.cfg:6:9: error: Unknown function of no arguments: `bad_function'.
    x = bad_function ();
        ^~~~~~~~~~~~
config-parser/test/bad-funs.cfg:7:9: error: Unknown function of 1 argument: `bad_function'.
    x = bad_function (1);
        ^~~~~~~~~~~~
config-parser/test/bad-funs.cfg:8:9: error: Unknown function of 2 arguments: `bad_function'.
    x = bad_function (1, 2);
        ^~~~~~~~~~~~
config-parser/test/bad-funs.cfg:9:9: error: Unknown function of 3 arguments: `bad_function'.
    x = bad_function (1, 2, 3);
        ^~~~~~~~~~~~
