config-parser/test/uniform-bad-args.cfg:4:32: error: An arithmetic progression is not an expression of type interval.
  x = choose (uniform (1 .. 2, 3 .. 10 step 2));
                               ^~~~~~~~~~~~~~
